{
	"authors": [
		"stephen"
	],
	"copyright": "Copyright © 2020, stephen",
	"dependencies": {
		"raylib-d": "~>3.0.2"
	},
	"libs": ["raylib"],
	"description": "Pandemic Sim",
	"name": "pandemic",
	"targetPath": ".",
    "targetName": "pandemic",
    "targetType": "executable",
    "sourcePaths": [
        "./src/"
    ]
}
